<svg width="14" height="38" viewBox="0 0 14 38" fill="none" xmlns="http://www.w3.org/2000/svg">
<path d="M14 30.7513L7.03084 38L1.5905e-06 30.7513L7.03084 23.6288L14 30.7513Z" fill="#FA99D8"/>
<path d="M14 7.12252L7.03084 14.3712L5.57651e-07 7.12252L7.03084 3.04632e-07L14 7.12252Z" fill="#FA99D8"/>
</svg>
