<svg width="1920" height="21" viewBox="0 0 1920 21" fill="none" xmlns="http://www.w3.org/2000/svg">
<path d="M-66.65 0L-77 10.17L-66.65 20.43L-56.48 10.17L-66.65 0Z" fill="#353535"/>
<path d="M-11.0609 0L-21.4109 10.17L-11.0609 20.43L-0.890938 10.17L-11.0609 0Z" fill="#353535"/>
<path d="M44.5281 0L34.1781 10.17L44.5281 20.43L54.6981 10.17L44.5281 0Z" fill="#353535"/>
<path d="M100.117 0L89.7672 10.17L100.117 20.43L110.287 10.17L100.117 0Z" fill="#353535"/>
<path d="M155.706 0L145.356 10.17L155.706 20.43L165.876 10.17L155.706 0Z" fill="#353535"/>
<path d="M211.295 0L200.945 10.17L211.295 20.43L221.465 10.17L211.295 0Z" fill="#353535"/>
<path d="M266.884 0L256.534 10.17L266.884 20.43L277.054 10.17L266.884 0Z" fill="#353535"/>
<path d="M322.473 0L312.123 10.17L322.473 20.43L332.643 10.17L322.473 0Z" fill="#353535"/>
<path d="M378.062 0L367.712 10.17L378.062 20.43L388.233 10.17L378.062 0Z" fill="#353535"/>
<path d="M433.652 0L423.302 10.17L433.652 20.43L443.822 10.17L433.652 0Z" fill="#353535"/>
<path d="M489.241 0L478.891 10.17L489.241 20.43L499.411 10.17L489.241 0Z" fill="#353535"/>
<path d="M544.83 0L534.48 10.17L544.83 20.43L555 10.17L544.83 0Z" fill="#353535"/>
<path d="M600.419 0L590.069 10.17L600.419 20.43L610.589 10.17L600.419 0Z" fill="#353535"/>
<path d="M656.008 0L645.658 10.17L656.008 20.43L666.178 10.17L656.008 0Z" fill="#353535"/>
<path d="M711.597 0L701.247 10.17L711.597 20.43L721.767 10.17L711.597 0Z" fill="#353535"/>
<path d="M767.186 0L756.836 10.17L767.186 20.43L777.356 10.17L767.186 0Z" fill="#353535"/>
<path d="M822.775 0L812.425 10.17L822.775 20.43L832.945 10.17L822.775 0Z" fill="#353535"/>
<path d="M878.364 0L868.014 10.17L878.364 20.43L888.534 10.17L878.364 0Z" fill="#353535"/>
<path d="M933.953 0L923.603 10.17L933.953 20.43L944.123 10.17L933.953 0Z" fill="#353535"/>
<path d="M989.542 0L979.192 10.17L989.542 20.43L999.712 10.17L989.542 0Z" fill="#353535"/>
<path d="M1045.13 0L1034.78 10.17L1045.13 20.43L1055.3 10.17L1045.13 0Z" fill="#353535"/>
<path d="M1100.72 0L1090.37 10.17L1100.72 20.43L1110.89 10.17L1100.72 0Z" fill="#353535"/>
<path d="M1156.31 0L1145.96 10.17L1156.31 20.43L1166.48 10.17L1156.31 0Z" fill="#353535"/>
<path d="M1211.9 0L1201.55 10.17L1211.9 20.43L1222.07 10.17L1211.9 0Z" fill="#353535"/>
<path d="M1267.49 0L1257.14 10.17L1267.49 20.43L1277.66 10.17L1267.49 0Z" fill="#353535"/>
<path d="M1323.08 0L1312.73 10.17L1323.08 20.43L1333.25 10.17L1323.08 0Z" fill="#353535"/>
<path d="M1378.67 0L1368.32 10.17L1378.67 20.43L1388.84 10.17L1378.67 0Z" fill="#353535"/>
<path d="M1434.25 0L1423.9 10.17L1434.25 20.43L1444.42 10.17L1434.25 0Z" fill="#353535"/>
<path d="M1489.84 0L1479.49 10.17L1489.84 20.43L1500.01 10.17L1489.84 0Z" fill="#353535"/>
<path d="M1545.43 0L1535.08 10.17L1545.43 20.43L1555.6 10.17L1545.43 0Z" fill="#353535"/>
<path d="M1601.02 0L1590.67 10.17L1601.02 20.43L1611.19 10.17L1601.02 0Z" fill="#353535"/>
<path d="M1656.61 0L1646.26 10.17L1656.61 20.43L1666.78 10.17L1656.61 0Z" fill="#353535"/>
<path d="M1712.2 0L1701.85 10.17L1712.2 20.43L1722.37 10.17L1712.2 0Z" fill="#353535"/>
<path d="M1767.79 0L1757.44 10.17L1767.79 20.43L1777.96 10.17L1767.79 0Z" fill="#353535"/>
<path d="M1823.38 0L1813.03 10.17L1823.38 20.43L1833.55 10.17L1823.38 0Z" fill="#353535"/>
<path d="M1878.97 0L1868.62 10.17L1878.97 20.43L1889.14 10.17L1878.97 0Z" fill="#353535"/>
<path d="M1934.56 0L1924.21 10.17L1934.56 20.43L1944.73 10.17L1934.56 0Z" fill="#353535"/>
</svg>
